[
        {
            "IndexName": "level-index",
            "KeySchema": [
                {
                    "AttributeName": "level",
                    "KeyType": "RANGE"
                }
            ],
            "Projection": {
                "ProjectionType": "ALL"
            }
        },
        {
            "IndexName": "component-index",
            "KeySchema": [
                {
                    "AttributeName": "component",
                    "KeyType": "S"
                }
            ],
            "Projection": {
                "ProjectionType": "ALL",
                "NonKeyAttributes": []
            }
        }
]
